{
  "type": "module",
  "name": "project",
  "version": "0.1.0",
  "devDependencies": {
    "browser-sync": "^2.26.13",
    "gulp": "^4.0.2",
    "gulp-concat": "^2.6.1",
    "gulp-csso": "^4.0.1",
    "gulp-filter": "^6.0.0",
    "gulp-if": "^3.0.0",
    "gulp-imagemin": "^7.1.0",
    "gulp-load-plugins": "^2.0.6",
    "gulp-pug": "^5.0.0",
    "gulp-pug-inheritance": "^0.2.1",
    "gulp-purgecss": "^3.1.3",
    "gulp-sass": "^4.1.0",
    "gulp-sass-inheritance": "^1.1.2",
    "gulp-terser": "^2.0.1",
    "install": "^0.13.0",
    "node-sass": "^5.0.0",
    "video.js": "^7.15.4"
  },
  "engines": {
    "node": ">=8"
  },
  "browserslist": [
    "last 2 versions"
  ],
  "scripts": {
    "dev": "gulp",
    "build": "gulp generate-assets"
  },
  "dependencies": {
    "save-dev": "0.0.1-security",
    "uninstall": "0.0.0"
  }
}
