Django==3.2.8
django-solo==1.2.0
django-modeltranslation==0.17.3
django-rosetta==0.9.7
django-filebrowser-no-grappelli==3.8.0
pylibmc==1.6.1
Pillow==8.4.0
psycopg2==2.9.1
django-ckeditor==6.1.0
openpyxl==3.0.9